^C:\USERS\N550JK-CN456H\DOCUMENTS\SGRAI_1140650_1140632_1140634_1120215\SGRAI_BOMBERMAN\SGRAI_BOMBERMAN\STDAFX.CPP
/c /I"C:\PROGRAM FILES (X86)\OPENAL 1.1 SDK\INCLUDE" /I"C:\FREEALUT-1.1.0\INCLUDE" /ZI /nologo /W3 /WX- /sdl /Od /Oy- /D _CRT_SECURE_NO_WARNINGS /D WIN32 /D _DEBUG /D _CONSOLE /D _UNICODE /D UNICODE /Gm /EHsc /RTC1 /MDd /GS /fp:precise /Zc:wchar_t /Zc:forScope /Zc:inline /Yc"stdafx.h" /Fp"DEBUG\SGRAI_BOMBERMAN.PCH" /Fo"DEBUG\\" /Fd"DEBUG\VC140.PDB" /Gd /TP /analyze- C:\USERS\N550JK-CN456H\DOCUMENTS\SGRAI_1140650_1140632_1140634_1120215\SGRAI_BOMBERMAN\SGRAI_BOMBERMAN\STDAFX.CPP
^C:\USERS\N550JK-CN456H\DOCUMENTS\SGRAI_1140650_1140632_1140634_1120215\SGRAI_BOMBERMAN\SGRAI_BOMBERMAN\ADD.CPP
/c /I"C:\PROGRAM FILES (X86)\OPENAL 1.1 SDK\INCLUDE" /I"C:\FREEALUT-1.1.0\INCLUDE" /ZI /nologo /W3 /WX- /sdl /Od /Oy- /D _CRT_SECURE_NO_WARNINGS /D WIN32 /D _DEBUG /D _CONSOLE /D _UNICODE /D UNICODE /Gm /EHsc /RTC1 /MDd /GS /fp:precise /Zc:wchar_t /Zc:forScope /Zc:inline /Yu"stdafx.h" /Fp"DEBUG\SGRAI_BOMBERMAN.PCH" /Fo"DEBUG\\" /Fd"DEBUG\VC140.PDB" /Gd /TP /analyze- C:\USERS\N550JK-CN456H\DOCUMENTS\SGRAI_1140650_1140632_1140634_1120215\SGRAI_BOMBERMAN\SGRAI_BOMBERMAN\ADD.CPP
^C:\USERS\N550JK-CN456H\DOCUMENTS\SGRAI_1140650_1140632_1140634_1120215\SGRAI_BOMBERMAN\SGRAI_BOMBERMAN\ATOMICBOMB.CPP
/c /I"C:\PROGRAM FILES (X86)\OPENAL 1.1 SDK\INCLUDE" /I"C:\FREEALUT-1.1.0\INCLUDE" /ZI /nologo /W3 /WX- /sdl /Od /Oy- /D _CRT_SECURE_NO_WARNINGS /D WIN32 /D _DEBUG /D _CONSOLE /D _UNICODE /D UNICODE /Gm /EHsc /RTC1 /MDd /GS /fp:precise /Zc:wchar_t /Zc:forScope /Zc:inline /Yu"stdafx.h" /Fp"DEBUG\SGRAI_BOMBERMAN.PCH" /Fo"DEBUG\\" /Fd"DEBUG\VC140.PDB" /Gd /TP /analyze- C:\USERS\N550JK-CN456H\DOCUMENTS\SGRAI_1140650_1140632_1140634_1120215\SGRAI_BOMBERMAN\SGRAI_BOMBERMAN\ATOMICBOMB.CPP
^C:\USERS\N550JK-CN456H\DOCUMENTS\SGRAI_1140650_1140632_1140634_1120215\SGRAI_BOMBERMAN\SGRAI_BOMBERMAN\BLOCK.CPP
/c /I"C:\PROGRAM FILES (X86)\OPENAL 1.1 SDK\INCLUDE" /I"C:\FREEALUT-1.1.0\INCLUDE" /ZI /nologo /W3 /WX- /sdl /Od /Oy- /D _CRT_SECURE_NO_WARNINGS /D WIN32 /D _DEBUG /D _CONSOLE /D _UNICODE /D UNICODE /Gm /EHsc /RTC1 /MDd /GS /fp:precise /Zc:wchar_t /Zc:forScope /Zc:inline /Yu"stdafx.h" /Fp"DEBUG\SGRAI_BOMBERMAN.PCH" /Fo"DEBUG\\" /Fd"DEBUG\VC140.PDB" /Gd /TP /analyze- C:\USERS\N550JK-CN456H\DOCUMENTS\SGRAI_1140650_1140632_1140634_1120215\SGRAI_BOMBERMAN\SGRAI_BOMBERMAN\BLOCK.CPP
^C:\USERS\N550JK-CN456H\DOCUMENTS\SGRAI_1140650_1140632_1140634_1120215\SGRAI_BOMBERMAN\SGRAI_BOMBERMAN\BOMB.CPP
/c /I"C:\PROGRAM FILES (X86)\OPENAL 1.1 SDK\INCLUDE" /I"C:\FREEALUT-1.1.0\INCLUDE" /ZI /nologo /W3 /WX- /sdl /Od /Oy- /D _CRT_SECURE_NO_WARNINGS /D WIN32 /D _DEBUG /D _CONSOLE /D _UNICODE /D UNICODE /Gm /EHsc /RTC1 /MDd /GS /fp:precise /Zc:wchar_t /Zc:forScope /Zc:inline /Yu"stdafx.h" /Fp"DEBUG\SGRAI_BOMBERMAN.PCH" /Fo"DEBUG\\" /Fd"DEBUG\VC140.PDB" /Gd /TP /analyze- C:\USERS\N550JK-CN456H\DOCUMENTS\SGRAI_1140650_1140632_1140634_1120215\SGRAI_BOMBERMAN\SGRAI_BOMBERMAN\BOMB.CPP
^C:\USERS\N550JK-CN456H\DOCUMENTS\SGRAI_1140650_1140632_1140634_1120215\SGRAI_BOMBERMAN\SGRAI_BOMBERMAN\BOXBOMB.CPP
/c /I"C:\PROGRAM FILES (X86)\OPENAL 1.1 SDK\INCLUDE" /I"C:\FREEALUT-1.1.0\INCLUDE" /ZI /nologo /W3 /WX- /sdl /Od /Oy- /D _CRT_SECURE_NO_WARNINGS /D WIN32 /D _DEBUG /D _CONSOLE /D _UNICODE /D UNICODE /Gm /EHsc /RTC1 /MDd /GS /fp:precise /Zc:wchar_t /Zc:forScope /Zc:inline /Yu"stdafx.h" /Fp"DEBUG\SGRAI_BOMBERMAN.PCH" /Fo"DEBUG\\" /Fd"DEBUG\VC140.PDB" /Gd /TP /analyze- C:\USERS\N550JK-CN456H\DOCUMENTS\SGRAI_1140650_1140632_1140634_1120215\SGRAI_BOMBERMAN\SGRAI_BOMBERMAN\BOXBOMB.CPP
^C:\USERS\N550JK-CN456H\DOCUMENTS\SGRAI_1140650_1140632_1140634_1120215\SGRAI_BOMBERMAN\SGRAI_BOMBERMAN\CAMARA.CPP
/c /I"C:\PROGRAM FILES (X86)\OPENAL 1.1 SDK\INCLUDE" /I"C:\FREEALUT-1.1.0\INCLUDE" /ZI /nologo /W3 /WX- /sdl /Od /Oy- /D _CRT_SECURE_NO_WARNINGS /D WIN32 /D _DEBUG /D _CONSOLE /D _UNICODE /D UNICODE /Gm /EHsc /RTC1 /MDd /GS /fp:precise /Zc:wchar_t /Zc:forScope /Zc:inline /Yu"stdafx.h" /Fp"DEBUG\SGRAI_BOMBERMAN.PCH" /Fo"DEBUG\\" /Fd"DEBUG\VC140.PDB" /Gd /TP /analyze- C:\USERS\N550JK-CN456H\DOCUMENTS\SGRAI_1140650_1140632_1140634_1120215\SGRAI_BOMBERMAN\SGRAI_BOMBERMAN\CAMARA.CPP
^C:\USERS\N550JK-CN456H\DOCUMENTS\SGRAI_1140650_1140632_1140634_1120215\SGRAI_BOMBERMAN\SGRAI_BOMBERMAN\CONFIGURATIONS.CPP
/c /I"C:\PROGRAM FILES (X86)\OPENAL 1.1 SDK\INCLUDE" /I"C:\FREEALUT-1.1.0\INCLUDE" /ZI /nologo /W3 /WX- /sdl /Od /Oy- /D _CRT_SECURE_NO_WARNINGS /D WIN32 /D _DEBUG /D _CONSOLE /D _UNICODE /D UNICODE /Gm /EHsc /RTC1 /MDd /GS /fp:precise /Zc:wchar_t /Zc:forScope /Zc:inline /Yu"stdafx.h" /Fp"DEBUG\SGRAI_BOMBERMAN.PCH" /Fo"DEBUG\\" /Fd"DEBUG\VC140.PDB" /Gd /TP /analyze- C:\USERS\N550JK-CN456H\DOCUMENTS\SGRAI_1140650_1140632_1140634_1120215\SGRAI_BOMBERMAN\SGRAI_BOMBERMAN\CONFIGURATIONS.CPP
^C:\USERS\N550JK-CN456H\DOCUMENTS\SGRAI_1140650_1140632_1140634_1120215\SGRAI_BOMBERMAN\SGRAI_BOMBERMAN\CROSSBOMB.CPP
/c /I"C:\PROGRAM FILES (X86)\OPENAL 1.1 SDK\INCLUDE" /I"C:\FREEALUT-1.1.0\INCLUDE" /ZI /nologo /W3 /WX- /sdl /Od /Oy- /D _CRT_SECURE_NO_WARNINGS /D WIN32 /D _DEBUG /D _CONSOLE /D _UNICODE /D UNICODE /Gm /EHsc /RTC1 /MDd /GS /fp:precise /Zc:wchar_t /Zc:forScope /Zc:inline /Yu"stdafx.h" /Fp"DEBUG\SGRAI_BOMBERMAN.PCH" /Fo"DEBUG\\" /Fd"DEBUG\VC140.PDB" /Gd /TP /analyze- C:\USERS\N550JK-CN456H\DOCUMENTS\SGRAI_1140650_1140632_1140634_1120215\SGRAI_BOMBERMAN\SGRAI_BOMBERMAN\CROSSBOMB.CPP
^C:\USERS\N550JK-CN456H\DOCUMENTS\SGRAI_1140650_1140632_1140634_1120215\SGRAI_BOMBERMAN\SGRAI_BOMBERMAN\CUSTOM.CPP
/c /I"C:\PROGRAM FILES (X86)\OPENAL 1.1 SDK\INCLUDE" /I"C:\FREEALUT-1.1.0\INCLUDE" /ZI /nologo /W3 /WX- /sdl /Od /Oy- /D _CRT_SECURE_NO_WARNINGS /D WIN32 /D _DEBUG /D _CONSOLE /D _UNICODE /D UNICODE /Gm /EHsc /RTC1 /MDd /GS /fp:precise /Zc:wchar_t /Zc:forScope /Zc:inline /Yu"stdafx.h" /Fp"DEBUG\SGRAI_BOMBERMAN.PCH" /Fo"DEBUG\\" /Fd"DEBUG\VC140.PDB" /Gd /TP /analyze- C:\USERS\N550JK-CN456H\DOCUMENTS\SGRAI_1140650_1140632_1140634_1120215\SGRAI_BOMBERMAN\SGRAI_BOMBERMAN\CUSTOM.CPP
^C:\USERS\N550JK-CN456H\DOCUMENTS\SGRAI_1140650_1140632_1140634_1120215\SGRAI_BOMBERMAN\SGRAI_BOMBERMAN\CUSTOMPLAYER.CPP
/c /I"C:\PROGRAM FILES (X86)\OPENAL 1.1 SDK\INCLUDE" /I"C:\FREEALUT-1.1.0\INCLUDE" /ZI /nologo /W3 /WX- /sdl /Od /Oy- /D _CRT_SECURE_NO_WARNINGS /D WIN32 /D _DEBUG /D _CONSOLE /D _UNICODE /D UNICODE /Gm /EHsc /RTC1 /MDd /GS /fp:precise /Zc:wchar_t /Zc:forScope /Zc:inline /Yu"stdafx.h" /Fp"DEBUG\SGRAI_BOMBERMAN.PCH" /Fo"DEBUG\\" /Fd"DEBUG\VC140.PDB" /Gd /TP /analyze- C:\USERS\N550JK-CN456H\DOCUMENTS\SGRAI_1140650_1140632_1140634_1120215\SGRAI_BOMBERMAN\SGRAI_BOMBERMAN\CUSTOMPLAYER.CPP
^C:\USERS\N550JK-CN456H\DOCUMENTS\SGRAI_1140650_1140632_1140634_1120215\SGRAI_BOMBERMAN\SGRAI_BOMBERMAN\CUSTOMCONTROLLER.CPP
/c /I"C:\PROGRAM FILES (X86)\OPENAL 1.1 SDK\INCLUDE" /I"C:\FREEALUT-1.1.0\INCLUDE" /ZI /nologo /W3 /WX- /sdl /Od /Oy- /D _CRT_SECURE_NO_WARNINGS /D WIN32 /D _DEBUG /D _CONSOLE /D _UNICODE /D UNICODE /Gm /EHsc /RTC1 /MDd /GS /fp:precise /Zc:wchar_t /Zc:forScope /Zc:inline /Yu"stdafx.h" /Fp"DEBUG\SGRAI_BOMBERMAN.PCH" /Fo"DEBUG\\" /Fd"DEBUG\VC140.PDB" /Gd /TP /analyze- C:\USERS\N550JK-CN456H\DOCUMENTS\SGRAI_1140650_1140632_1140634_1120215\SGRAI_BOMBERMAN\SGRAI_BOMBERMAN\CUSTOMCONTROLLER.CPP
^C:\USERS\N550JK-CN456H\DOCUMENTS\SGRAI_1140650_1140632_1140634_1120215\SGRAI_BOMBERMAN\SGRAI_BOMBERMAN\CUSTOMSOUND.CPP
/c /I"C:\PROGRAM FILES (X86)\OPENAL 1.1 SDK\INCLUDE" /I"C:\FREEALUT-1.1.0\INCLUDE" /ZI /nologo /W3 /WX- /sdl /Od /Oy- /D _CRT_SECURE_NO_WARNINGS /D WIN32 /D _DEBUG /D _CONSOLE /D _UNICODE /D UNICODE /Gm /EHsc /RTC1 /MDd /GS /fp:precise /Zc:wchar_t /Zc:forScope /Zc:inline /Yu"stdafx.h" /Fp"DEBUG\SGRAI_BOMBERMAN.PCH" /Fo"DEBUG\\" /Fd"DEBUG\VC140.PDB" /Gd /TP /analyze- C:\USERS\N550JK-CN456H\DOCUMENTS\SGRAI_1140650_1140632_1140634_1120215\SGRAI_BOMBERMAN\SGRAI_BOMBERMAN\CUSTOMSOUND.CPP
^C:\USERS\N550JK-CN456H\DOCUMENTS\SGRAI_1140650_1140632_1140634_1120215\SGRAI_BOMBERMAN\SGRAI_BOMBERMAN\ENDOFGAME.CPP
/c /I"C:\PROGRAM FILES (X86)\OPENAL 1.1 SDK\INCLUDE" /I"C:\FREEALUT-1.1.0\INCLUDE" /ZI /nologo /W3 /WX- /sdl /Od /Oy- /D _CRT_SECURE_NO_WARNINGS /D WIN32 /D _DEBUG /D _CONSOLE /D _UNICODE /D UNICODE /Gm /EHsc /RTC1 /MDd /GS /fp:precise /Zc:wchar_t /Zc:forScope /Zc:inline /Yu"stdafx.h" /Fp"DEBUG\SGRAI_BOMBERMAN.PCH" /Fo"DEBUG\\" /Fd"DEBUG\VC140.PDB" /Gd /TP /analyze- C:\USERS\N550JK-CN456H\DOCUMENTS\SGRAI_1140650_1140632_1140634_1120215\SGRAI_BOMBERMAN\SGRAI_BOMBERMAN\ENDOFGAME.CPP
^C:\USERS\N550JK-CN456H\DOCUMENTS\SGRAI_1140650_1140632_1140634_1120215\SGRAI_BOMBERMAN\SGRAI_BOMBERMAN\EXPLOSION.CPP
/c /I"C:\PROGRAM FILES (X86)\OPENAL 1.1 SDK\INCLUDE" /I"C:\FREEALUT-1.1.0\INCLUDE" /ZI /nologo /W3 /WX- /sdl /Od /Oy- /D _CRT_SECURE_NO_WARNINGS /D WIN32 /D _DEBUG /D _CONSOLE /D _UNICODE /D UNICODE /Gm /EHsc /RTC1 /MDd /GS /fp:precise /Zc:wchar_t /Zc:forScope /Zc:inline /Yu"stdafx.h" /Fp"DEBUG\SGRAI_BOMBERMAN.PCH" /Fo"DEBUG\\" /Fd"DEBUG\VC140.PDB" /Gd /TP /analyze- C:\USERS\N550JK-CN456H\DOCUMENTS\SGRAI_1140650_1140632_1140634_1120215\SGRAI_BOMBERMAN\SGRAI_BOMBERMAN\EXPLOSION.CPP
^C:\USERS\N550JK-CN456H\DOCUMENTS\SGRAI_1140650_1140632_1140634_1120215\SGRAI_BOMBERMAN\SGRAI_BOMBERMAN\GAME1VS1CONTROLLER.CPP
/c /I"C:\PROGRAM FILES (X86)\OPENAL 1.1 SDK\INCLUDE" /I"C:\FREEALUT-1.1.0\INCLUDE" /ZI /nologo /W3 /WX- /sdl /Od /Oy- /D _CRT_SECURE_NO_WARNINGS /D WIN32 /D _DEBUG /D _CONSOLE /D _UNICODE /D UNICODE /Gm /EHsc /RTC1 /MDd /GS /fp:precise /Zc:wchar_t /Zc:forScope /Zc:inline /Yu"stdafx.h" /Fp"DEBUG\SGRAI_BOMBERMAN.PCH" /Fo"DEBUG\\" /Fd"DEBUG\VC140.PDB" /Gd /TP /analyze- C:\USERS\N550JK-CN456H\DOCUMENTS\SGRAI_1140650_1140632_1140634_1120215\SGRAI_BOMBERMAN\SGRAI_BOMBERMAN\GAME1VS1CONTROLLER.CPP
^C:\USERS\N550JK-CN456H\DOCUMENTS\SGRAI_1140650_1140632_1140634_1120215\SGRAI_BOMBERMAN\SGRAI_BOMBERMAN\GAME1VS1.CPP
/c /I"C:\PROGRAM FILES (X86)\OPENAL 1.1 SDK\INCLUDE" /I"C:\FREEALUT-1.1.0\INCLUDE" /ZI /nologo /W3 /WX- /sdl /Od /Oy- /D _CRT_SECURE_NO_WARNINGS /D WIN32 /D _DEBUG /D _CONSOLE /D _UNICODE /D UNICODE /Gm /EHsc /RTC1 /MDd /GS /fp:precise /Zc:wchar_t /Zc:forScope /Zc:inline /Yu"stdafx.h" /Fp"DEBUG\SGRAI_BOMBERMAN.PCH" /Fo"DEBUG\\" /Fd"DEBUG\VC140.PDB" /Gd /TP /analyze- C:\USERS\N550JK-CN456H\DOCUMENTS\SGRAI_1140650_1140632_1140634_1120215\SGRAI_BOMBERMAN\SGRAI_BOMBERMAN\GAME1VS1.CPP
^C:\USERS\N550JK-CN456H\DOCUMENTS\SGRAI_1140650_1140632_1140634_1120215\SGRAI_BOMBERMAN\SGRAI_BOMBERMAN\GAME1VSPC.CPP
/c /I"C:\PROGRAM FILES (X86)\OPENAL 1.1 SDK\INCLUDE" /I"C:\FREEALUT-1.1.0\INCLUDE" /ZI /nologo /W3 /WX- /sdl /Od /Oy- /D _CRT_SECURE_NO_WARNINGS /D WIN32 /D _DEBUG /D _CONSOLE /D _UNICODE /D UNICODE /Gm /EHsc /RTC1 /MDd /GS /fp:precise /Zc:wchar_t /Zc:forScope /Zc:inline /Yu"stdafx.h" /Fp"DEBUG\SGRAI_BOMBERMAN.PCH" /Fo"DEBUG\\" /Fd"DEBUG\VC140.PDB" /Gd /TP /analyze- C:\USERS\N550JK-CN456H\DOCUMENTS\SGRAI_1140650_1140632_1140634_1120215\SGRAI_BOMBERMAN\SGRAI_BOMBERMAN\GAME1VSPC.CPP
^C:\USERS\N550JK-CN456H\DOCUMENTS\SGRAI_1140650_1140632_1140634_1120215\SGRAI_BOMBERMAN\SGRAI_BOMBERMAN\GAME1VSPCCONTROLLER.CPP
/c /I"C:\PROGRAM FILES (X86)\OPENAL 1.1 SDK\INCLUDE" /I"C:\FREEALUT-1.1.0\INCLUDE" /ZI /nologo /W3 /WX- /sdl /Od /Oy- /D _CRT_SECURE_NO_WARNINGS /D WIN32 /D _DEBUG /D _CONSOLE /D _UNICODE /D UNICODE /Gm /EHsc /RTC1 /MDd /GS /fp:precise /Zc:wchar_t /Zc:forScope /Zc:inline /Yu"stdafx.h" /Fp"DEBUG\SGRAI_BOMBERMAN.PCH" /Fo"DEBUG\\" /Fd"DEBUG\VC140.PDB" /Gd /TP /analyze- C:\USERS\N550JK-CN456H\DOCUMENTS\SGRAI_1140650_1140632_1140634_1120215\SGRAI_BOMBERMAN\SGRAI_BOMBERMAN\GAME1VSPCCONTROLLER.CPP
^C:\USERS\N550JK-CN456H\DOCUMENTS\SGRAI_1140650_1140632_1140634_1120215\SGRAI_BOMBERMAN\SGRAI_BOMBERMAN\GAMESELECTOR.CPP
/c /I"C:\PROGRAM FILES (X86)\OPENAL 1.1 SDK\INCLUDE" /I"C:\FREEALUT-1.1.0\INCLUDE" /ZI /nologo /W3 /WX- /sdl /Od /Oy- /D _CRT_SECURE_NO_WARNINGS /D WIN32 /D _DEBUG /D _CONSOLE /D _UNICODE /D UNICODE /Gm /EHsc /RTC1 /MDd /GS /fp:precise /Zc:wchar_t /Zc:forScope /Zc:inline /Yu"stdafx.h" /Fp"DEBUG\SGRAI_BOMBERMAN.PCH" /Fo"DEBUG\\" /Fd"DEBUG\VC140.PDB" /Gd /TP /analyze- C:\USERS\N550JK-CN456H\DOCUMENTS\SGRAI_1140650_1140632_1140634_1120215\SGRAI_BOMBERMAN\SGRAI_BOMBERMAN\GAMESELECTOR.CPP
^C:\USERS\N550JK-CN456H\DOCUMENTS\SGRAI_1140650_1140632_1140634_1120215\SGRAI_BOMBERMAN\SGRAI_BOMBERMAN\HORIZONTALBOMB.CPP
/c /I"C:\PROGRAM FILES (X86)\OPENAL 1.1 SDK\INCLUDE" /I"C:\FREEALUT-1.1.0\INCLUDE" /ZI /nologo /W3 /WX- /sdl /Od /Oy- /D _CRT_SECURE_NO_WARNINGS /D WIN32 /D _DEBUG /D _CONSOLE /D _UNICODE /D UNICODE /Gm /EHsc /RTC1 /MDd /GS /fp:precise /Zc:wchar_t /Zc:forScope /Zc:inline /Yu"stdafx.h" /Fp"DEBUG\SGRAI_BOMBERMAN.PCH" /Fo"DEBUG\\" /Fd"DEBUG\VC140.PDB" /Gd /TP /analyze- C:\USERS\N550JK-CN456H\DOCUMENTS\SGRAI_1140650_1140632_1140634_1120215\SGRAI_BOMBERMAN\SGRAI_BOMBERMAN\HORIZONTALBOMB.CPP
^C:\USERS\N550JK-CN456H\DOCUMENTS\SGRAI_1140650_1140632_1140634_1120215\SGRAI_BOMBERMAN\SGRAI_BOMBERMAN\MAP.CPP
/c /I"C:\PROGRAM FILES (X86)\OPENAL 1.1 SDK\INCLUDE" /I"C:\FREEALUT-1.1.0\INCLUDE" /ZI /nologo /W3 /WX- /sdl /Od /Oy- /D _CRT_SECURE_NO_WARNINGS /D WIN32 /D _DEBUG /D _CONSOLE /D _UNICODE /D UNICODE /Gm /EHsc /RTC1 /MDd /GS /fp:precise /Zc:wchar_t /Zc:forScope /Zc:inline /Yu"stdafx.h" /Fp"DEBUG\SGRAI_BOMBERMAN.PCH" /Fo"DEBUG\\" /Fd"DEBUG\VC140.PDB" /Gd /TP /analyze- C:\USERS\N550JK-CN456H\DOCUMENTS\SGRAI_1140650_1140632_1140634_1120215\SGRAI_BOMBERMAN\SGRAI_BOMBERMAN\MAP.CPP
^C:\USERS\N550JK-CN456H\DOCUMENTS\SGRAI_1140650_1140632_1140634_1120215\SGRAI_BOMBERMAN\SGRAI_BOMBERMAN\OPERATION.CPP
/c /I"C:\PROGRAM FILES (X86)\OPENAL 1.1 SDK\INCLUDE" /I"C:\FREEALUT-1.1.0\INCLUDE" /ZI /nologo /W3 /WX- /sdl /Od /Oy- /D _CRT_SECURE_NO_WARNINGS /D WIN32 /D _DEBUG /D _CONSOLE /D _UNICODE /D UNICODE /Gm /EHsc /RTC1 /MDd /GS /fp:precise /Zc:wchar_t /Zc:forScope /Zc:inline /Yu"stdafx.h" /Fp"DEBUG\SGRAI_BOMBERMAN.PCH" /Fo"DEBUG\\" /Fd"DEBUG\VC140.PDB" /Gd /TP /analyze- C:\USERS\N550JK-CN456H\DOCUMENTS\SGRAI_1140650_1140632_1140634_1120215\SGRAI_BOMBERMAN\SGRAI_BOMBERMAN\OPERATION.CPP
^C:\USERS\N550JK-CN456H\DOCUMENTS\SGRAI_1140650_1140632_1140634_1120215\SGRAI_BOMBERMAN\SGRAI_BOMBERMAN\PARTBUILDER.CPP
/c /I"C:\PROGRAM FILES (X86)\OPENAL 1.1 SDK\INCLUDE" /I"C:\FREEALUT-1.1.0\INCLUDE" /ZI /nologo /W3 /WX- /sdl /Od /Oy- /D _CRT_SECURE_NO_WARNINGS /D WIN32 /D _DEBUG /D _CONSOLE /D _UNICODE /D UNICODE /Gm /EHsc /RTC1 /MDd /GS /fp:precise /Zc:wchar_t /Zc:forScope /Zc:inline /Yu"stdafx.h" /Fp"DEBUG\SGRAI_BOMBERMAN.PCH" /Fo"DEBUG\\" /Fd"DEBUG\VC140.PDB" /Gd /TP /analyze- C:\USERS\N550JK-CN456H\DOCUMENTS\SGRAI_1140650_1140632_1140634_1120215\SGRAI_BOMBERMAN\SGRAI_BOMBERMAN\PARTBUILDER.CPP
^C:\USERS\N550JK-CN456H\DOCUMENTS\SGRAI_1140650_1140632_1140634_1120215\SGRAI_BOMBERMAN\SGRAI_BOMBERMAN\PARTICLESGENERATOR.CPP
/c /I"C:\PROGRAM FILES (X86)\OPENAL 1.1 SDK\INCLUDE" /I"C:\FREEALUT-1.1.0\INCLUDE" /ZI /nologo /W3 /WX- /sdl /Od /Oy- /D _CRT_SECURE_NO_WARNINGS /D WIN32 /D _DEBUG /D _CONSOLE /D _UNICODE /D UNICODE /Gm /EHsc /RTC1 /MDd /GS /fp:precise /Zc:wchar_t /Zc:forScope /Zc:inline /Yu"stdafx.h" /Fp"DEBUG\SGRAI_BOMBERMAN.PCH" /Fo"DEBUG\\" /Fd"DEBUG\VC140.PDB" /Gd /TP /analyze- C:\USERS\N550JK-CN456H\DOCUMENTS\SGRAI_1140650_1140632_1140634_1120215\SGRAI_BOMBERMAN\SGRAI_BOMBERMAN\PARTICLESGENERATOR.CPP
^C:\USERS\N550JK-CN456H\DOCUMENTS\SGRAI_1140650_1140632_1140634_1120215\SGRAI_BOMBERMAN\SGRAI_BOMBERMAN\PLAYER.CPP
/c /I"C:\PROGRAM FILES (X86)\OPENAL 1.1 SDK\INCLUDE" /I"C:\FREEALUT-1.1.0\INCLUDE" /ZI /nologo /W3 /WX- /sdl /Od /Oy- /D _CRT_SECURE_NO_WARNINGS /D WIN32 /D _DEBUG /D _CONSOLE /D _UNICODE /D UNICODE /Gm /EHsc /RTC1 /MDd /GS /fp:precise /Zc:wchar_t /Zc:forScope /Zc:inline /Yu"stdafx.h" /Fp"DEBUG\SGRAI_BOMBERMAN.PCH" /Fo"DEBUG\\" /Fd"DEBUG\VC140.PDB" /Gd /TP /analyze- C:\USERS\N550JK-CN456H\DOCUMENTS\SGRAI_1140650_1140632_1140634_1120215\SGRAI_BOMBERMAN\SGRAI_BOMBERMAN\PLAYER.CPP
^C:\USERS\N550JK-CN456H\DOCUMENTS\SGRAI_1140650_1140632_1140634_1120215\SGRAI_BOMBERMAN\SGRAI_BOMBERMAN\RANDOMBOMB.CPP
/c /I"C:\PROGRAM FILES (X86)\OPENAL 1.1 SDK\INCLUDE" /I"C:\FREEALUT-1.1.0\INCLUDE" /ZI /nologo /W3 /WX- /sdl /Od /Oy- /D _CRT_SECURE_NO_WARNINGS /D WIN32 /D _DEBUG /D _CONSOLE /D _UNICODE /D UNICODE /Gm /EHsc /RTC1 /MDd /GS /fp:precise /Zc:wchar_t /Zc:forScope /Zc:inline /Yu"stdafx.h" /Fp"DEBUG\SGRAI_BOMBERMAN.PCH" /Fo"DEBUG\\" /Fd"DEBUG\VC140.PDB" /Gd /TP /analyze- C:\USERS\N550JK-CN456H\DOCUMENTS\SGRAI_1140650_1140632_1140634_1120215\SGRAI_BOMBERMAN\SGRAI_BOMBERMAN\RANDOMBOMB.CPP
^C:\USERS\N550JK-CN456H\DOCUMENTS\SGRAI_1140650_1140632_1140634_1120215\SGRAI_BOMBERMAN\SGRAI_BOMBERMAN\READERWRITERCSV.CPP
/c /I"C:\PROGRAM FILES (X86)\OPENAL 1.1 SDK\INCLUDE" /I"C:\FREEALUT-1.1.0\INCLUDE" /ZI /nologo /W3 /WX- /sdl /Od /Oy- /D _CRT_SECURE_NO_WARNINGS /D WIN32 /D _DEBUG /D _CONSOLE /D _UNICODE /D UNICODE /Gm /EHsc /RTC1 /MDd /GS /fp:precise /Zc:wchar_t /Zc:forScope /Zc:inline /Yu"stdafx.h" /Fp"DEBUG\SGRAI_BOMBERMAN.PCH" /Fo"DEBUG\\" /Fd"DEBUG\VC140.PDB" /Gd /TP /analyze- C:\USERS\N550JK-CN456H\DOCUMENTS\SGRAI_1140650_1140632_1140634_1120215\SGRAI_BOMBERMAN\SGRAI_BOMBERMAN\READERWRITERCSV.CPP
^C:\USERS\N550JK-CN456H\DOCUMENTS\SGRAI_1140650_1140632_1140634_1120215\SGRAI_BOMBERMAN\SGRAI_BOMBERMAN\SGRAI_BOMBERMAN.CPP
/c /I"C:\PROGRAM FILES (X86)\OPENAL 1.1 SDK\INCLUDE" /I"C:\FREEALUT-1.1.0\INCLUDE" /ZI /nologo /W3 /WX- /sdl /Od /Oy- /D _CRT_SECURE_NO_WARNINGS /D WIN32 /D _DEBUG /D _CONSOLE /D _UNICODE /D UNICODE /Gm /EHsc /RTC1 /MDd /GS /fp:precise /Zc:wchar_t /Zc:forScope /Zc:inline /Yu"stdafx.h" /Fp"DEBUG\SGRAI_BOMBERMAN.PCH" /Fo"DEBUG\\" /Fd"DEBUG\VC140.PDB" /Gd /TP /analyze- C:\USERS\N550JK-CN456H\DOCUMENTS\SGRAI_1140650_1140632_1140634_1120215\SGRAI_BOMBERMAN\SGRAI_BOMBERMAN\SGRAI_BOMBERMAN.CPP
^C:\USERS\N550JK-CN456H\DOCUMENTS\SGRAI_1140650_1140632_1140634_1120215\SGRAI_BOMBERMAN\SGRAI_BOMBERMAN\SOUND.CPP
/c /I"C:\PROGRAM FILES (X86)\OPENAL 1.1 SDK\INCLUDE" /I"C:\FREEALUT-1.1.0\INCLUDE" /ZI /nologo /W3 /WX- /sdl /Od /Oy- /D _CRT_SECURE_NO_WARNINGS /D WIN32 /D _DEBUG /D _CONSOLE /D _UNICODE /D UNICODE /Gm /EHsc /RTC1 /MDd /GS /fp:precise /Zc:wchar_t /Zc:forScope /Zc:inline /Yu"stdafx.h" /Fp"DEBUG\SGRAI_BOMBERMAN.PCH" /Fo"DEBUG\\" /Fd"DEBUG\VC140.PDB" /Gd /TP /analyze- C:\USERS\N550JK-CN456H\DOCUMENTS\SGRAI_1140650_1140632_1140634_1120215\SGRAI_BOMBERMAN\SGRAI_BOMBERMAN\SOUND.CPP
^C:\USERS\N550JK-CN456H\DOCUMENTS\SGRAI_1140650_1140632_1140634_1120215\SGRAI_BOMBERMAN\SGRAI_BOMBERMAN\SUB.CPP
/c /I"C:\PROGRAM FILES (X86)\OPENAL 1.1 SDK\INCLUDE" /I"C:\FREEALUT-1.1.0\INCLUDE" /ZI /nologo /W3 /WX- /sdl /Od /Oy- /D _CRT_SECURE_NO_WARNINGS /D WIN32 /D _DEBUG /D _CONSOLE /D _UNICODE /D UNICODE /Gm /EHsc /RTC1 /MDd /GS /fp:precise /Zc:wchar_t /Zc:forScope /Zc:inline /Yu"stdafx.h" /Fp"DEBUG\SGRAI_BOMBERMAN.PCH" /Fo"DEBUG\\" /Fd"DEBUG\VC140.PDB" /Gd /TP /analyze- C:\USERS\N550JK-CN456H\DOCUMENTS\SGRAI_1140650_1140632_1140634_1120215\SGRAI_BOMBERMAN\SGRAI_BOMBERMAN\SUB.CPP
^C:\USERS\N550JK-CN456H\DOCUMENTS\SGRAI_1140650_1140632_1140634_1120215\SGRAI_BOMBERMAN\SGRAI_BOMBERMAN\VERTICALBOMB.CPP
/c /I"C:\PROGRAM FILES (X86)\OPENAL 1.1 SDK\INCLUDE" /I"C:\FREEALUT-1.1.0\INCLUDE" /ZI /nologo /W3 /WX- /sdl /Od /Oy- /D _CRT_SECURE_NO_WARNINGS /D WIN32 /D _DEBUG /D _CONSOLE /D _UNICODE /D UNICODE /Gm /EHsc /RTC1 /MDd /GS /fp:precise /Zc:wchar_t /Zc:forScope /Zc:inline /Yu"stdafx.h" /Fp"DEBUG\SGRAI_BOMBERMAN.PCH" /Fo"DEBUG\\" /Fd"DEBUG\VC140.PDB" /Gd /TP /analyze- C:\USERS\N550JK-CN456H\DOCUMENTS\SGRAI_1140650_1140632_1140634_1120215\SGRAI_BOMBERMAN\SGRAI_BOMBERMAN\VERTICALBOMB.CPP
